[
     {
        "source": {
         "id": 3,
         "name": "C",
         "gender": "male"
      },
      "target": {
         "id": 11,
         "name": "K",
         "gender": "male"
      }
   },
   {
      "source": {
         "id": 12,
         "name": "L",
         "gender": "male"
      },
      "target": {
         "id": 13,
         "name": "J",
         "gender": "male"
      }
   },
   {
      "source": {
         "id": 5,
         "gender": "male",
         "name": "D"
      },
      "target": {
         "id": 6,
         "gender": "male",
         "name": "E"
      }
   },
   {
      "source": {
         "id": 16,
         "gender": "male",
         "name": "Q"
      },
      "target": {
         "id": 10,
         "gender": "male",
         "name": "M"
      }
   }
]
