

{
     "name": "",
   "id": 1,
   "gender": "female",
   "hidden": true,
   "children": [
      {
         "name": "Alice",
         "id": 16,
         "gender": "male",
         "no_parent": true
      },
      {
         "name": "",
         "id": 2,
         "gender": "male",
         "no_parent": true,
         "hidden": true,
         "children": [
            {
               "name": "Jack",
               "gender": "female",
               "id": 12
            },
            {
               "name": "Lina",
               "gender": "male",
               "id": 13,
               "no_parent": true
            },
            {
               "name": "Cindy",
               "gender": "female",
               "id": 3
            },
            {
               "name": "",
               "id": 4,
               "gender": "male",
               "hidden": true,
               "no_parent": true,
               "children": [
                  {
                     "name": "Dexter",
                     "gender": "male",
                     "id": 5
                  },
                  {
                     "name": "",
                     "id": 14,
                     "hidden": true,
                     "no_parent": true,
                     "children": [
                        {
                           "name": "Penelope",
                           "gender": "female",
                           "id": 15
                        }
                     ]
                  },
                  {
                     "name": "Emanuel",
                     "gender": "male",
                     "id": 6
                  }
               ]
            },
            {
               "name": "Kaleyign",
               "gender": "female",
               "id": 11
            },
            {
               "name": "Gerrad",
               "id": 7,
               "gender": "male",
               "children": [
                  {
                     "name": "Hants",
                     "gender": "female",
                     "id": 8
                  },
                  {
                     "name": "Ibrahaim",
                     "gender": "male",
                     "id": 9
                  }
               ]
            }
         ]
      },
      {
         "name": "Maxwell",
         "gender": "female",
         "id": 10,
         "no_parent": true,
         "children": []
      }
   ]
}
